name,real_price,special_price,image_url,description
پاد سیستم VAPORESSO مدل ZERO نقره ای,"6,800,000ریال","5,350,000ریال",https://www.tehmart.ir/media/uploads/catalog/default/product_98_1619081303_60826.jpg,"پاد سیستم VAPORESSO  مدل ZERO,- زمان شارژ 45 دقیقه,- دارای دکمه on/off جهت تنطیم توان خروجی,- بهترین جایگزین برای سیگار,- پک کامل شامل: Pod(سری)+(بدنه)Mod، فیلر، کابل شارژ، کاتالوگ"
ترازو آشپزخانه مدل SF-400-LIGHT,"1,400,000ریال","1,190,000ریال",https://www.tehmart.ir/media/uploads/catalog/default/product_3_1609936770_60380.jpg,"نمایشگر LCD خوانا ( اندازه ارقام 16 میلیمتر ),
خاموش شدن اتوماتیک پس از 3 دقیقه در صورت استفاده نکردن,
دارای سیستم هشدار دهنده کاهش باطری و وزن بیش از حد مجاز,
دارای دو واحد اندازه گیری گرم و اونس,
مناسب برای مصرف خانگی و تجاری,
سنسور بسیار دقیق فشار,
بهترین هدیه به خانم های با سلیقه ، خانه دار و آشپزهای حرفه ای,
صفحه ضد لک برای تمیزی آسان,
سیستم تبدیل واحد ها و استندبای اتوماتیک,
با امکانات تغيير واحد اندازه گيري و صفر شدن اتوماتيک و خاموش شدن اتوماتيک,
با دقت 1 گرم تا 10 کیلوگرم"
پاد سیستم VAPORESSO  مدل ZERO مشکی,"6,800,000ریال","5,350,000ریال",https://www.tehmart.ir/media/uploads/catalog/default/product_82_1618837477_20498.jpg,"پاد سیستم VAPORESSO  مدل ZERO,- زمان شارژ 45 دقیقه,- دارای دکمه on/off جهت تنطیم توان خروجی,- بهترین جایگزین برای سیگار,- پک کامل شامل: Pod(سری)+(بدنه)Mod، فیلر، کابل شارژ، کاتالوگ"
چاقوی آشپزخانه کوک استایل مدل PK1038-01,"1,500,000ریال","1,190,000ریال",https://www.tehmart.ir/media/uploads/catalog/default/product_46_1618476590_38501.jpeg,"- جنس تیغه: استیل ضد زنگ,
- ساخته شده از بدنه و تیغه یکپارچه استیل,
- کیفیت ساخت عالی,
- تیغه های تیز,
- طراحی بسیار زیبا,
- طول تیغه چاقو: 19.5 سانتی متر,
- طول کلی: 34 سانتی متر"
هندزفری مدل IN-513,"890,000ریال","690,000ریال",https://www.tehmart.ir/media/uploads/catalog/default/product_50_1618482472_48977.jpeg,"هندزفری Lenjoy با قابلیت اتصال از طریق جک 3.5 میلیمتری,دارار بودن کلید برقراری تماس,فرکانس پاسخگویی 12 هرتز تا 23 هزار هرتز ,درایور 14 میلیمتری,اندازه کابل: 1 متر ,در5 رنگ: سبز، آبی، سفید، قرمز، مشکی"
ایجویس قهوه LOUFOC Coffee,"3,200,000ریال","2,600,000ریال",https://www.tehmart.ir/media/uploads/catalog/default/product_62_1619088200_91076.jpg,"- از سری جویس های پرطرفدار!,- قهوه رُست شده، دارای کافئین به میزان کم,- بسیار با کیفیت و دارای طبع گرم,- بدون آسیب رساندن به کویل و حاوی گلیسیرین طبیعی."
جویس با طعم کاپوچینو CAPPUCCINO,"2,500,000ریال","2,100,000ریال",https://www.tehmart.ir/media/uploads/catalog/default/product_70_1618739984_10111.jpg,"جویس با طعم CAPPUCCINO ,- جزو جویس های با کیفیت و خوش طعم,- ترکیب قهوه، شیر، شکلات یا دارچین,- دارای میزان کمی کافئین,- دارای طبع گرم,- بدون آسیب رساندن به کویل و حاوی گلیسیرین طبیعی"
جویس مینی کره بادام زمینی و مربای انگور MINI Peanut Butter Jelly & Grape jam,"3,100,000ریال","2,500,000ریال",https://www.tehmart.ir/media/uploads/catalog/default/product_56_1618656673_66829.jpg,"جویس MINI,- ترکیب خاص از صبحانه شما، مربای انگور و کره بادوم زمینی,- این جویس برای افرادی که به بادوم زمینی حساسیت دارن هم مناسبه!,- جزو جویس های با کیفیت و بدون نیکوتین,- بدون آسیب رساندن به کویل و حاوی گلیسیرین طبیعی"
ایجویس Ultra Cool هندوانه و یخ,"3,000,000ریال","2,400,000ریال",https://www.tehmart.ir/media/uploads/catalog/default/product_111_1619258424_17831.jpg,"- ULTRA COOL watermelon,- از سری جویس های ترکیبی خوش طعم و خاص گرمسیری، هندوانه و یخ,- تعادل طعمی این جویس نرمی بی نظیری را ایجاد کرده و باعث می شود در طول مصرف، تجربه ی خسته کننده ای به کاربر منتقل نشود.,- بدون آسیب رساندن به کویل و حاوی گلیسیرین طبیعی."
ماشین اصلاح مو و ریش تراش پرو جیمی مدل ProGemei GM 6032,"3,600,000ریال","2,590,000ریال",https://www.tehmart.ir/media/uploads/catalog/default/product_155_1650362026_28617.jpg,"محصول جدید شرکت پرو جیمی ماشین اصلاح صورت و بدن و ریش تراش GM-6032 ساخت شرکت معتبر تولید و عرضه انواع لوازم اصلاح از جمله موزن گوش و بینی، اپیلاتور، بند انداز و همچنین دیگر محصولات آرایشی برقی از جمله لوازم سالن ها و سشوار خانگی، سشوار حرفه ای، برس حرارتی، اتو مو و غیره میباشد.,از مزایای برند Gemei به نسبت رقبا، کیفیت رضایتمندانه محصول که از مواد درجه یک از جمله بهترین استیل مقاوم و ضدزنگ، اما در عین حال قیمت ارزان و اقتصادی و مقرون به صرفه اش میتوان نام برد.,اگر قبلا از محصولات دیگر جیمی یا زیربرند پروجیمی ProGemei استفاده کرده باشید قطعا با ما هم عقیده خواهید بود.,از مزایای تهمارت هم میشه قیمت تضمینی پایینتر به نسبت پلتفرم های بزرگتر مثل ,نام برد. (برای مشاهده قیمت سایر فروشگاه ها ,)"
جویس مینی کره بادام زمینی و مربای بلوبری MINI Peanut Butter Jelly & Blueberry Jam,"3,100,000ریال","2,500,000ریال",https://www.tehmart.ir/media/uploads/catalog/default/product_126_1619438469_88589.jpeg,"جویس MINI,- ترکیب خاص از صبحانه شما، مربای بلوبری و کره بادوم زمینی!,- بسیار خوش طعم,- جزو جویس های با کیفیت و بدون نیکوتین,- بدون آسیب رساندن به کویل و حاوی گلیسیرین طبیعی"
برس حرارتی جیمی مدل GM_2973,"3,500,000ریال","2,900,000ریال",https://www.tehmart.ir/media/uploads/catalog/default/product_45_1618412665_50073.jpeg,"صفحه سرامیکی جهت ایجاد حرارت,دکمه روشن و خاموش همراه با نشانگر LED,مصرف برق 60 وات,گردش 360 درجه مفصل سیم برق دستگاه جهت سهولت در استفاده,توان حرارتی 400 درجه سانتی گراد,فرم دهی موها در کمترین زمان"
برس برقی پاک سازی صورت,"4,850,000ریال","2,450,000ریال",https://www.tehmart.ir/media/uploads/catalog/default/product_5_1609939780_81588.jpg,"همه انسان ها نگران سلامتی خود هستن؛ یکی از نگرانی های مهم امروزه ما مخصوصا خانمها، پیری زودرس پوسته که باعث کاهش اعتماد به نفس میشه!,شستشوی نادرست، ناقص وعدم پاکسازی کامل پوست از آلودگی ها باعث ایجاد چین و چروک، کدر شدن رنگ پوست وایجاد لکه بروی پوست میشه!,برس پاکسازی صورت برای پاک کردن آرایش و از بین بردن خشکی پوست صورت بسیار مناسبه. این برس 3 سری داره که یکی مخصوص مصرف روزانه و یکی مخصوص پاکسازی و از بین برنده چین و چروک و خطوط پوست و دیگری از بین برنده جوشها و آکنه هستش.,برس روزانه بسیار نرم و لطیف و برای پوست‌های حساس مناسبه. برس پاکسازی به رنگ صورتی برای پوست‌های چرب و شست‌وشوی عمیق پوست طراحی شده. یکی از نکات مثبت این مدل طراحی ارگونومیک و وزن کم دستگاهِ که استفاده ازش را آسان کرده.,گفتنیه که سری‌های این دستگاه قابلیت شست‌وشو دارن اما بهتره از غوطه‌ور شدن و فرو رفتن دستگاه در آب جلوگیری بشه. سرعت چرخش این دستگاه دو حالته بوده که با کلید روشن و خاموش قابل تنظیمه. جنس بدنه این دستگاه کاملا با محیط زیست سازگار هستش."
گوشواره FULIDA کد01,"1,100,000ریال","790,000ریال",https://www.tehmart.ir/media/uploads/catalog/default/product_149_1626639523_40946.jpg,"-  یکی از اکسسوری‌ های پرکاربرد بین خانوما گوشواره هستش!,-  گوشواره جزء زیورآلات محبوبیه که هدیه دادنش به خانوما می‌توانه به ذوق بندازتشون ^^,-  این گوشواره از استیل ضد زنگ تهیه شده و  رنگش ثابته؛ همچنین می‌توانه استایل روزمره و مهمونی شما رو تحت تاثیر قرار بده."
گوشواره مینیمال FULIDA کد04,"1,100,000ریال","790,000ریال",https://www.tehmart.ir/media/uploads/catalog/default/product_152_1626641212_27198.jpg,"-  یکی از اکسسوری‌ های پرکاربرد بین خانوما گوشواره هستش!,-  گوشواره جزء زیورآلات محبوبیه که هدیه دادنش به خانوما می‌توانه به ذوق بندازتشون ^^,-  این گوشواره از استیل ضد زنگ تهیه شده و  رنگش ثابته؛ همچنین می‌توانه استایل روزمره و مهمونی شما رو تحت تاثیر قرار بده."
ایجویس  Naked LAVA FLOW,"2,100,000ریال","1,390,000ریال",https://www.tehmart.ir/media/uploads/catalog/default/product_17_1617712319_91764.jpg,"شرکت نیکد از سری شرکت های معروف تولید کننده جویس با بهترین طعم های با کیفیت می باشد.,از سری جویس های ترکیبی خوش طعم و خاص توت فرنگی، آناناس و نارگیل!,بدون آسیب رساندن به کویل و حاوی گلیسیرین طبیعی."
ایجویس  Naked Hawaiian pog,"2,100,000ریال","1,390,000ریال",https://www.tehmart.ir/media/uploads/catalog/default/product_25_1618734990_82271.jpg,"شرکت نیکد از سری شرکت های معروف تولید کننده جویس با بهترین طعم های با کیفیت می باشد.,از سری جویس های ترکیبی خوش طعم و خاص با طعم آب پرتقال، پشن فروت استوایی و میوه ی خوش طعم گواوا !,بدون آسیب رساندن به کویل و حاوی گلیسیرین طبیعی."
ایجویس  Naked POLAR BREEZE,"2,100,000ریال","1,390,000ریال",https://www.tehmart.ir/media/uploads/catalog/default/product_23_1618039786_60817.jpeg,"شرکت نیکد از سری شرکت های معروف تولید کننده جویس با بهترین طعم های با کیفیت می باشد.,از سری جویس های ترکیبی خوش طعم و خاص آناناس، ملون و طالبی !,بدون آسیب رساندن به کویل و حاوی گلیسیرین طبیعی."
ایجویس  Naked MAUI SUN,"2,100,000ریال","1,390,000ریال",https://www.tehmart.ir/media/uploads/catalog/default/product_24_1618040424_42177.jpg,"شرکت نیکد از سری شرکت های معروف تولید کننده جویس با بهترین طعم های با کیفیت می باشد.,از سری جویس های ترکیبی خوش طعم و خاص گرمسیری پرتقال، نارنگی و آناناس !,تعادل طعمی این جویس نرمی بی نظیری را ایجاد کرده و باعث می شود در طول مصرف، تجربه ی خسته کننده ای به کاربر منتقل نشود.,بدون آسیب رساندن به کویل و حاوی گلیسیرین طبیعی."
ایجویس  Naked GREEN BLAST,"2,100,000ریال","1,390,000ریال",https://www.tehmart.ir/media/uploads/catalog/default/product_19_1617782511_98500.jpg,"شرکت نیکد از سری شرکت های معروف تولید کننده جویس با بهترین طعم های با کیفیت می باشد.,از سری جویس های ترکیبی خوش طعم و خاص سیب سبز، کیوی و طالبی!,بدون آسیب رساندن به کویل و حاوی گلیسیرین طبیعی."
ایجویس  Naked FROST BITE,"2,100,000ریال","1,390,000ریال",https://www.tehmart.ir/media/uploads/catalog/default/product_26_1618041551_86405.jpg,"شرکت نیکد از سری شرکت های معروف تولید کننده جویس با بهترین طعم های با کیفیت می باشد.,از سری جویس های ترکیبی خوش طعم و خاص یخی با طعم طالبی و ملون !,بدون آسیب رساندن به کویل و حاوی گلیسیرین طبیعی."
ایجویس  Naked BERRY LUSH,"2,100,000ریال","1,390,000ریال",https://www.tehmart.ir/media/uploads/catalog/default/product_28_1618046362_56239.jpg,"شرکت نیکد از سری شرکت های معروف تولید کننده جویس با بهترین طعم های با کیفیت می باشد.,از سری جویس های ترکیبی خوش طعم و خاص یخی با طعم توت فرنگی، آناناس و خامه !,بدون آسیب رساندن به کویل و حاوی گلیسیرین طبیعی."
ایجویس  Naked Brain Freeze,"2,100,000ریال","1,390,000ریال",https://www.tehmart.ir/media/uploads/catalog/default/product_27_1618043618_69118.jpg,"شرکت نیکد از سری شرکت های معروف تولید کننده جویس با بهترین طعم های با کیفیت می باشد.,از سری جویس های ترکیبی خاص با طعم ترش کیوی و انار به همراه شیرینی توت فرنگی تازه !,بدون آسیب رساندن به کویل و حاوی گلیسیرین طبیعی."
ایجویس  Naked GO NANAS,"2,100,000ریال","1,390,000ریال",https://www.tehmart.ir/media/uploads/catalog/default/product_20_1617784625_68616.jpg,"شرکت نیکد از سری شرکت های معروف تولید کننده جویس با بهترین طعم های با کیفیت می باشد.,از سری جویس های ترکیبی دسر خامه با طعم موز (دارای طبع گرم) !,بدون آسیب رساندن به کویل و حاوی گلیسیرین طبیعی."
ایجویس  Naked NAKED UNICORN,"2,100,000ریال","1,390,000ریال",https://www.tehmart.ir/media/uploads/catalog/default/product_21_1617785945_16375.jpg,"شرکت نیکد از سری شرکت های معروف تولید کننده جویس با بهترین طعم های با کیفیت می باشد.,از سری جویس های ترکیبی خوش طعم و خاص شیرین با طعم توت فرنگی و خامه !,بدون آسیب رساندن به کویل و حاوی گلیسیرین طبیعی."
ایجویس  Naked Berry Belts,"2,100,000ریال","1,390,000ریال",https://www.tehmart.ir/media/uploads/catalog/default/product_29_1618131389_87426.jpg,"شرکت نیکد از سری شرکت های معروف تولید کننده جویس با بهترین طعم های با کیفیت می باشد.,از سری جویس های ترکیبی خاص با طعم پاستیل شکری ترش و شیرین، توت فرنگی و لیموترش !,بدون آسیب رساندن به کویل و حاوی گلیسیرین طبیعی."
گوشواره مینیمال Vivi کد02,"1,100,000ریال","790,000ریال",https://www.tehmart.ir/media/uploads/catalog/default/product_142_1621426578_28204.jpeg,"-  یکی از اکسسوری‌ های پرکاربرد بین خانوما گوشواره هستش!,-  گوشواره جزء زیورآلات محبوبیه که هدیه دادنش به خانوما می‌توانه به ذوق بندازتشون ^^,-  این گوشواره از استیل ضد زنگ تهیه شده و  رنگش ثابته؛ همچنین می‌توانه استایل روزمره و مهمونی شما رو تحت تاثیر قرار بده."
گوشواره مینیمال FULIDA کد02,"1,100,000ریال","790,000ریال",https://www.tehmart.ir/media/uploads/catalog/default/product_141_1621426224_52266.jpeg,"-  یکی از اکسسوری‌ های پرکاربرد بین خانوما گوشواره هستش!,-  گوشواره جزء زیورآلات محبوبیه که هدیه دادنش به خانوما می‌توانه به ذوق بندازتشون ^^,-  این گوشواره از استیل ضد زنگ تهیه شده و  رنگش ثابته؛ همچنین می‌توانه استایل روزمره و مهمونی شما رو تحت تاثیر قرار بده."
ایجویس  Naked Amazing Mango,"2,100,000ریال","1,390,000ریال",https://www.tehmart.ir/media/uploads/catalog/default/product_31_1618135214_79787.jpg,"شرکت نیکد از سری شرکت های معروف تولید کننده جویس با بهترین طعم های با کیفیت می باشد.,از سری جویس های ترکیبی دسر خامه با طعم انبه و هلو (دارای طبع گرم) !,بدون آسیب رساندن به کویل و حاوی گلیسیرین طبیعی."
گوشواره مینیمال FULIDA کد05,"1,100,000ریال","790,000ریال",https://www.tehmart.ir/media/uploads/catalog/default/product_153_1626641533_69926.jpg,"-  یکی از اکسسوری‌ های پرکاربرد بین خانوما گوشواره هستش!,-  گوشواره جزء زیورآلات محبوبیه که هدیه دادنش به خانوما می‌توانه به ذوق بندازتشون ^^,-  این گوشواره از استیل ضد زنگ تهیه شده و  رنگش ثابته؛ همچنین می‌توانه استایل روزمره و مهمونی شما رو تحت تاثیر قرار بده."
گوشواره مینیمال FULIDA کد03,"1,100,000ریال","790,000ریال",https://www.tehmart.ir/media/uploads/catalog/default/product_151_1626640960_19066.jpg,"-  یکی از اکسسوری‌ های پرکاربرد بین خانوما گوشواره هستش!,-  گوشواره جزء زیورآلات محبوبیه که هدیه دادنش به خانوما می‌توانه به ذوق بندازتشون ^^,-  این گوشواره از استیل ضد زنگ تهیه شده و  رنگش ثابته؛ همچنین می‌توانه استایل روزمره و مهمونی شما رو تحت تاثیر قرار بده."
گوشواره استیل مینیمال,"1,100,000ریال","790,000ریال",https://www.tehmart.ir/media/uploads/catalog/default/product_143_1621426778_44081.jpeg,"-  یکی از اکسسوری‌ های پرکاربرد بین خانوما گوشواره هستش!,-  گوشواره جزء زیورآلات محبوبیه که هدیه دادنش به خانوما می‌توانه به ذوق بندازتشون ^^,-  این گوشواره از استیل ضد زنگ تهیه شده و  رنگش ثابته؛ همچنین می‌توانه استایل روزمره و مهمونی شما رو تحت تاثیر قرار بده."
گوشواره Fashion jewelry کد01,"1,100,000ریال","790,000ریال",https://www.tehmart.ir/media/uploads/catalog/default/product_150_1626640729_69320.jpg,"-  یکی از اکسسوری‌ های پرکاربرد بین خانوما گوشواره هستش!,-  گوشواره جزء زیورآلات محبوبیه که هدیه دادنش به خانوما می‌توانه به ذوق بندازتشون ^^,-  این گوشواره از استیل ضد زنگ تهیه شده و  رنگش ثابته؛ همچنین می‌توانه استایل روزمره و مهمونی شما رو تحت تاثیر قرار بده."
گوشواره مینیمال Vivi کد03,"1,100,000ریال","790,000ریال",https://www.tehmart.ir/media/uploads/catalog/default/product_140_1621425810_34262.jpeg,"-  یکی از اکسسوری‌ های پرکاربرد بین خانوما گوشواره هستش!,-  گوشواره جزء زیورآلات محبوبیه که هدیه دادنش به خانوما می‌توانه به ذوق بندازتشون ^^,-  این گوشواره از استیل ضد زنگ تهیه شده و  رنگش ثابته؛ همچنین می‌توانه استایل روزمره و مهمونی شما رو تحت تاثیر قرار بده."
ایجویس Ultra Cool طالبی و یخ,"3,000,000ریال","2,400,000ریال",https://www.tehmart.ir/media/uploads/catalog/default/product_115_1619260900_80986.png,"- ULTRA COOL melon,- از سری جویس های ترکیبی خوش طعم و خاص گرمسیری، ملون و یخ,- تعادل طعمی این جویس نرمی بی نظیری را ایجاد کرده و باعث می شود در طول مصرف، تجربه ی خسته کننده ای به کاربر منتقل نشود.,- بدون آسیب رساندن به کویل و حاوی گلیسیرین طبیعی."
ایجویس Ultra Cool سیب و یخ,"3,000,000ریال","2,400,000ریال",https://www.tehmart.ir/media/uploads/catalog/default/product_110_1619257754_38311.png,"- Ultra Cool apple ice,- ترکیبی خوش طعم و خاص از سیب قرمز تازه و یخ,- بسیار با کیفیت,- بدون آسیب رساندن به کویل و حاوی گلیسیرین طبیعی."
ایجویس Ultra Cool لیچی و یخ,"3,000,000ریال","2,400,000ریال",https://www.tehmart.ir/media/uploads/catalog/default/product_114_1619260669_97687.png,"- ULTRA COOL lychee,- اسانس میوه استوایی شیرین و آبدار لیچی,- جزو جویس های با کیفیت ,- بدون آسیب رساندن به کویل و حاوی گلیسیرین طبیعی"
ایجویس Ultra Cool توت فرنگی و یخ,"3,000,000ریال","2,400,000ریال",https://www.tehmart.ir/media/uploads/catalog/default/product_117_1619261508_84738.jpg,"- ULTRA COOL strawberry,- از سری جویس های ترکیبی خوش طعم و خاص توت فرنگی و یخ,- تعادل طعمی این جویس نرمی بی نظیری را ایجاد کرده و باعث می شود در طول مصرف، تجربه ی خسته کننده ای به کاربر منتقل نشود.,- بدون آسیب رساندن به کویل و حاوی گلیسیرین طبیعی."
گوشواره Vivi کد01,"1,100,000ریال","790,000ریال",https://www.tehmart.ir/media/uploads/catalog/default/product_144_1621427257_78954.jpeg,"-  یکی از اکسسوری‌ های پرکاربرد بین خانوما گوشواره هستش!,-  گوشواره جزء زیورآلات محبوبیه که هدیه دادنش به خانوما می‌توانه به ذوق بندازتشون ^^,-  این گوشواره از استیل ضد زنگ تهیه شده و  رنگش ثابته؛ همچنین می‌توانه استایل روزمره و مهمونی شما رو تحت تاثیر قرار بده."
ایجویس Ultra Cool انبه و یخ,"3,000,000ریال","2,400,000ریال",https://www.tehmart.ir/media/uploads/catalog/default/product_116_1619261271_20995.png,"- ULTRA COOL mango,- از سری جویس های ترکیبی خوش طعم و خاص گرمسیری، انبه آبدار و شیرین، یخ,- تعادل طعمی این جویس نرمی بی نظیری را ایجاد کرده و باعث می شود در طول مصرف، تجربه ی خسته کننده ای به کاربر منتقل نشود.,- دارای طبع گرم,- بدون آسیب رساندن به کویل و حاوی گلیسیرین طبیعی."
ایجویس Ultra Cool بلوبری و یخ,"3,000,000ریال","2,400,000ریال",https://www.tehmart.ir/media/uploads/catalog/default/product_112_1619259855_26237.jpg,"- ULTRA COOL blueberry,- از سری جویس های ترکیبی خوش طعم و خاص یخی با طعم بلوبری,- تعادل طعمی این جویس نرمی بی نظیری را ایجاد کرده و باعث می شود در طول مصرف، تجربه ی خسته کننده ای به کاربر منتقل نشود.,- بدون آسیب رساندن به کویل و حاوی گلیسیرین طبیعی."
ایجویس Ultra Cool انگور و یخ,"3,000,000ریال","2,400,000ریال",https://www.tehmart.ir/media/uploads/catalog/default/product_113_1619260345_45225.png,"- ULTRA COOL grape ice ,- ترکیبی خوش طعم و خاص از انگور سیاه و یخ,- تعادل طعمی این جویس نرمی بی نظیری را ایجاد کرده و باعث می شود در طول مصرف، تجربه ی خسته کننده ای به کاربر منتقل نشود.,- بدون آسیب رساندن به کویل و حاوی گلیسیرین طبیعی."
ایجویس Ultra Cool لیمو,"3,000,000ریال","2,400,000ریال",https://www.tehmart.ir/media/uploads/catalog/default/product_109_1619257207_20176.jpeg,"- ULTRA COOL lemon,- لیموترش تازه و یخ,- خوش طعم و خنک کننده,- بدون آسیب رساندن به کویل و حاوی گلیسیرین طبیعی."
ایجویس مینی فانتا انگور Mini Fanta Grape,"3,100,000ریال","2,500,000ریال",https://www.tehmart.ir/media/uploads/catalog/default/product_127_1619438995_45854.jpeg,"جویس MINI,- اسانس فانتا انگور,- بسیار خوش طعم,- جزو جویس های با کیفیت و بدون نیکوتین,- بدون آسیب رساندن به کویل و حاوی گلیسیرین طبیعی"
ایجویس شیر LOUFOC MILK,"3,200,000ریال","2,600,000ریال",https://www.tehmart.ir/media/uploads/catalog/default/product_90_1619087721_48362.jpg,"- ایجویس LOUFOC MILK,-  اسانس شیر تازه,- دارای ترکیبات خاص که موجب نرمی جویس شده و حس فرِش بودن به مصرف کننده میده و ازش خسته نمیشید!,- بدون آسیب رساندن به کویل و حاوی گلیسیرین طبیعی."
جویس مینی شیر توت فرنگی Mini Lychee Strawberry Milk,"3,100,000ریال","2,500,000ریال",https://www.tehmart.ir/media/uploads/catalog/default/product_53_1618654247_16911.jpg,"جویس MINI,- ترکیب میوه استوایی لیچی، توت فرنگی شیرین و شیر وانیل یخی,- جزو جویس های با کیفیت و بدون نیکوتین,- بدون آسیب رساندن به کویل و حاوی گلیسیرین طبیعی"
ایجویس شکلات LOUFOC Chocolate,"3,200,000ریال","2,600,000ریال",https://www.tehmart.ir/media/uploads/catalog/default/product_85_1619087896_14567.jpg,"- از سری جویس های پرطرفدار!,- شکلات، دارای کافئین به میزان کم,- خوش طعم و دارای طبع گرم,- بدون آسیب رساندن به کویل و حاوی گلیسیرین طبیعی."
ایجویس سیب LOUFOC Apple,"3,200,000ریال","2,600,000ریال",https://www.tehmart.ir/media/uploads/catalog/default/product_60_1619088277_92936.jpg,"- از سری جویس های پرطرفدار!,- ترکیبی خوش طعم و خاص از سیب قرمز آبدار و تازه,- بسیار با کیفیت,- بدون آسیب رساندن به کویل و حاوی گلیسیرین طبیعی."
ایجویس توت فرنگی LOUFOC Strawberry,"3,200,000ریال","2,600,000ریال",https://www.tehmart.ir/media/uploads/catalog/default/product_67_1619086777_42538.jpg,"- از سری جویس های پرطرفدار!,- ترکیبی خوش طعم و خاص از توت فرنگی شیرین آبدار ,- بسیار با کیفیت ,- بدون آسیب رساندن به کویل و حاوی گلیسیرین طبیعی."
جویس مینی انبه و هلو MINI Mango Peach,"3,100,000ریال","2,500,000ریال",https://www.tehmart.ir/media/uploads/catalog/default/product_54_1618654734_49634.jpg,"جویس MINI,- ترکیب دسر خامه ای انبه تازه، هلو ی آبدار و شیرین به همراه یخ,- جزو جویس های با کیفیت و بدون نیکوتین,- بدون آسیب رساندن به کویل و حاوی گلیسیرین طبیعی"
ایجویس بلوبری LOUFOC Blueberry,"3,200,000ریال","2,600,000ریال",https://www.tehmart.ir/media/uploads/catalog/default/product_87_1619087814_61559.jpg,"- از سری جویس های پرطرفدار!,- اسانس بلوبری آبدار مَلَس,- بسیار با کیفیت و خوش طعم,- بدون آسیب رساندن به کویل و حاوی گلیسیرین طبیعی."
ایجویس بادام زمینی LOUFOC Peanut,"3,200,000ریال","2,600,000ریال",https://www.tehmart.ir/media/uploads/catalog/default/product_66_1618737752_23546.jpg,"- از سری جویس های پرطرفدار!,- با اسانس بادام زمینی,- بسیار با کیفیت و دارای طبع گرم,- بدون آسیب رساندن به کویل و حاوی گلیسیرین طبیعی."
ایجویس چیزکیک LOUFOC Cheesecake,"3,200,000ریال","2,600,000ریال",https://www.tehmart.ir/media/uploads/catalog/default/product_61_1619088247_44245.jpg,"- از سری جویس های پرطرفدار!,- ترکیبی خوش طعم و خاص از چیز کیک تازه,- بسیار با کیفیت و دارای طبع گرم,- بدون آسیب رساندن به کویل و حاوی گلیسیرین طبیعی."
جویس مینی شیر انبه Mini Mango Lychee Milk,"3,100,000ریال","2,500,000ریال",https://www.tehmart.ir/media/uploads/catalog/default/product_55_1618655699_23133.jpg,"جویس MINI,- نوشیدنی ساحلی آسیایی,- ترکیب شیر انبه خامه ای، میوه شیرین و آبدار لیچی و البته به همراه یخ,- جزو جویس های با کیفیت و بدون نیکوتین,- بدون آسیب رساندن به کویل و حاوی گلیسیرین طبیعی"
ایجویس انبه LOUFOC MANGO,"3,200,000ریال","2,600,000ریال",https://www.tehmart.ir/media/uploads/catalog/default/product_65_1618662142_28648.jpg,"جویس LOUFOC,- اسانس میوه شیرین و آبدار انبه,- جزو جویس های با کیفیت با طبع گرم,- بدون آسیب رساندن به کویل و حاوی گلیسیرین طبیعی"
ایجویس انگور LOUFOC Grape,"3,200,000ریال","2,600,000ریال",https://www.tehmart.ir/media/uploads/catalog/default/product_63_1619088127_23068.jpg,"- از سری جویس های پرطرفدار!,- ترکیبی خوش طعم و خاص از انگور سبز و سیاه,- بسیار با کیفیت ,- بدون آسیب رساندن به کویل و حاوی گلیسیرین طبیعی."
ایجویس آدامس بادکنکی LOUFOC Bubble Gum,"3,200,000ریال","2,600,000ریال",https://www.tehmart.ir/media/uploads/catalog/default/product_84_1619087972_89223.jpg,"- از سری جویس های پرطرفدار!,- آدامس بادکنکی,- بسیار با کیفیت و خوش طعم,- بدون آسیب رساندن به کویل و حاوی گلیسیرین طبیعی."
جویس با طعم امریکانو AMERICANO,"2,500,000ریال","2,100,000ریال",https://www.tehmart.ir/media/uploads/catalog/default/product_69_1618739541_68921.jpg,"جویس با طعم AMERICANO ,- جزو جویس های با کیفیت و خوش طعم,- دارای میزان کمی کافئین,- بدون آسیب رساندن به کویل و حاوی گلیسیرین طبیعی"
ایجویس تنباکو LOUFOC Tobbaco,"3,200,000ریال","2,600,000ریال",https://www.tehmart.ir/media/uploads/catalog/default/product_91_1619087619_95102.jpg,"- ایجویس LOUFOC Tobbaco,- اسانس تنباکو,- پر شده از 0.3  میلی لیتر از نیکوتین سالت با طعم تنباکو، یکی از محبوب ترین طعم ها برای افراد سیگاری! فرادی که سیگار می کشند، معمولا از طعم های خالص، بدون طعم و غیر شیرین (مانند مزه ی تنباکو) لذت می برند و این جویس دقیقا یکی از بهترین گزینه هاس.,- بدون آسیب رساندن به کویل و حاوی گلیسیرین طبیعی., "
هندزفری مدل Go131,"950,000ریال","490,000ریال",https://www.tehmart.ir/media/uploads/catalog/default/product_49_1618481246_85143.jpeg,"هندزفری OnlyGo با قابلیت اتصال از طریق جک 3.5 میلیمتری,دارار بودن کلید برقراری تماس,فرکانس پاسخگویی 12 هرتز تا 22 هزار هرتز ,درایور 12 میلیمتری,طول کابل: 1 متر ,در6 رنگ: آبی، سبز، صورتی، سفید، زرد، مشکی"
هدفون لانگسدوم مدل JM26,"1,500,000ریال","790,000ریال",https://www.tehmart.ir/media/uploads/catalog/default/product_139_1621172991_88963.jpg,"هدفون با سیم JM26 یک , با طراحی زیبا و خوش ساخت با کیفیت بالا می باشد که با جدیدترین تکنولوژی های روز ساخته شده است. شما می توانید در هر زمان و مکانی برای گوش دادن به موسیقی یا رادیو به صورت شخصی از آن بهره ببرید. این هدفون , وسیله یک جک 3.5 میلیمتری به اسمارت فون، تبلت و موزیک پلیرها، آیپاد متصل می شود.,تیوپ های به کار رفته در قسمت توگوشی این کالا باعث جلوگیری از ورود صدای اطراف به داخل گوش شده و شما را در زیر و بم موسیقی غوطه ور می سازد. از طرفی یکی از ویژگی های مهم این محصول حذف صدای محیط اطراف است. روی کابل این کالا کلیدی برای کنترل صدای در حال پخش توسط کاربر به چشم می خورد و با بهره مندی از میکروفون داخلی و کلید برقراری تماس امکان پاسخگویی به تماس را به کاربر خود می دهد.,طول کابل این محصول مناسب بوده و بهره مندی از کابل های با کیفیت باعث می شود هنگام بهره بردن از این هدفون به محدودیت خاصی از جمله گره خوردن کابل، دچار نشوید. همچنین این هدفون مطابق ارگونومی گوش ساخته شده و باعث می شود در هنگام استفاده طولانی مدت هم احساس راحتی کنید."
هندزفری مدل GO-118,"750,000ریال","690,000ریال",https://www.tehmart.ir/media/uploads/catalog/default/product_51_1618485851_39867.jpeg,"هندزفری OnlyGo با فرکانس پاسخگویی 10 هرتز تا 21 هزار هرتز,با قابلیت اتصال از طریق جک 3.5 میلیمتری,دارار بودن کلید برقراری تماس,درایور 12 میلیمتری,اندازه کابل: 1 متر ,طراحی ظریف و فانتزی,در5 رنگ: آبی، سبز، کرم، طوسی، زرد، مشکی"
جویس با طعم کوکا کولا Coca Cola,"2,500,000ریال","2,150,000ریال",https://www.tehmart.ir/media/uploads/catalog/default/product_58_1618658811_43697.jpg,"جویس با طعم Coca.Cola,- طعم بسیار مشابه به کولا,- جزو جویس های یخی خوش طعم,- بدون آسیب رساندن به کویل و حاوی گلیسیرین طبیعی"
هدفون لانگسدوم مدل M299,"2,800,000ریال","2,190,000ریال",https://www.tehmart.ir/media/uploads/catalog/default/product_52_1618487255_17732.jpeg,"هدفون با سیم M299 یک , با طراحی زیبا و خوش ساخت با کیفیت بالا می باشد که با جدیدترین تکنولوژی های روز ساخته شده است. شما می توانید در هر زمان و مکانی برای گوش دادن به موسیقی یا رادیو به صورت شخصی از آن بهره ببرید. این هدفون , وسیله یک جک 3.5 میلیمتری به اسمارت فون، تبلت و موزیک پلیرها، آیپاد متصل می شود.,تیوپ های به کار رفته در قسمت توگوشی این کالا باعث جلوگیری از ورود صدای اطراف به داخل گوش شده و شما را در زیر و بم موسیقی غوطه ور می سازد. از طرفی یکی از ویژگی های مهم این محصول حذف صدای محیط اطراف است. روی کابل این کالا کلیدی برای کنترل صدای در حال پخش توسط کاربر به چشم می خورد و با بهره مندی از میکروفون داخلی و کلید برقراری تماس امکان پاسخگویی به تماس را به کاربر خود می دهد.,طول کابل این محصول مناسب بوده و بهره مندی از کابل های با کیفیت باعث می شود هنگام بهره بردن از این هدفون به محدودیت خاصی از جمله گره خوردن کابل، دچار نشوید. همچنین این هدفون مطابق ارگونومی گوش ساخته شده و باعث می شود در هنگام استفاده طولانی مدت هم احساس راحتی کنید."
جویس با طعم پپسی Pepsi,"2,500,000ریال","2,150,000ریال",https://www.tehmart.ir/media/uploads/catalog/default/product_59_1618659317_95463.jpg,"جویس با طعم Pepsi,- طعم بسیار مشابه به pepsi,- جزو جویس های یخی خوش طعم,- دارای فرمول اختصاصی، مصرف کننده را خسته نمیکند!,- بدون آسیب رساندن به کویل و حاوی گلیسیرین طبیعی"
هولدر پشت صندلی خودرو,"1,600,000ریال","1,390,000ریال",https://www.tehmart.ir/media/uploads/catalog/default/product_1_1609844678_40736.jpg,"جنس چرم,
دارای6محفظه شامل :,
دو جای بطری و لیوان,
یک جیب مناسب برای دستمال کاغذی,
دو جیب در بالا جهت قراردادن موبایل و اشیای کوچک,
یک جیب بزرگ در پایین جهت قراردادن تبلت، کتاب ، مجله و ...,
نصب آسان و راحت,
دارای 2 بند کشی جهت نصب پشت صندلی خودرو"
پاد سیستم VAPORESSO  مدل ZERO قرمز,"6,800,000ریال","5,350,000ریال",https://www.tehmart.ir/media/uploads/catalog/default/product_97_1619080931_48127.jpg,"پاد سیستم VAPORESSO  مدل ZERO,- زمان شارژ 45 دقیقه,- دارای دکمه on/off جهت تنطیم توان خروجی,- بهترین جایگزین برای سیگار,- پک کامل شامل: Pod(سری)+(بدنه)Mod، فیلر، کابل شارژ، کاتالوگ"
پاد سیستم VAPORESSO  مدل ZERO آبی,"6,800,000ریال","5,350,000ریال",https://www.tehmart.ir/media/uploads/catalog/default/product_132_1619521060_83619.jpg,"پاد سیستم VAPORESSO  مدل ZERO,- زمان شارژ 45 دقیقه,- دارای دکمه on/off جهت تنطیم توان خروجی,- بهترین جایگزین برای سیگار,- پک کامل شامل: Pod(سری)+(بدنه)Mod، فیلر، کابل شارژ، کاتالوگ"
پاد سیستم VAPORESSO  مدل ZERO سفید,"6,800,000ریال","5,350,000ریال",https://www.tehmart.ir/media/uploads/catalog/default/product_99_1619081716_33763.jpg,"پاد سیستم VAPORESSO  مدل ZERO,- زمان شارژ 45 دقیقه,- دارای دکمه on/off جهت تنطیم توان خروجی,- بهترین جایگزین برای سیگار,- پک کامل شامل: Pod(سری)+(بدنه)Mod، فیلر، کابل شارژ، کاتالوگ"
پاد سیستم SMOK مدل NOVO هفت رنگ,"8,000,000ریال","6,300,000ریال",https://www.tehmart.ir/media/uploads/catalog/default/product_81_1618833023_62813.jpg,"پاد سیستم SMOK مدل NOVO ,- بهترین جایگزین برای سیگار,- پک کامل شامل: X2 پاد، کابل USB، کاتالوگ"
پاد سیستم SMOK مدل NOVO قرمز,"8,000,000ریال","6,300,000ریال",https://www.tehmart.ir/media/uploads/catalog/default/product_118_1619517642_73729.jpg,"پاد سیستم SMOK مدل NOVO ,- بهترین جایگزین برای سیگار,- پک کامل شامل: X2 پاد، کابل USB، کاتالوگ"
جویس با طعم اسپرایت Sprite,"2,500,000ریال","2,150,000ریال",https://www.tehmart.ir/media/uploads/catalog/default/product_57_1618658150_83657.jpg,"جویس با طعم SPRITE,- ترکیب لیمو، نعنا، یخ,- جزو جویس های با کیفیت و خوش طعم,- بدون آسیب رساندن به کویل و حاوی گلیسیرین طبیعی"
پاد سیستم SMOK مدل NOVO مشکی,"8,000,000ریال","6,300,000ریال",https://www.tehmart.ir/media/uploads/catalog/default/product_119_1619526757_21782.jpg,"پاد سیستم SMOK مدل NOVO ,- بهترین جایگزین برای سیگار,- پک کامل شامل: X2 پاد، کابل USB، کاتالوگ"
پاد سیستم SMOK مدل NOVO سفید,"8,000,000ریال","6,300,000ریال",https://www.tehmart.ir/media/uploads/catalog/default/product_154_1628600412_14505.jpg,"پاد سیستم SMOK مدل NOVO ,- بهترین جایگزین برای سیگار,- پک کامل شامل: X2 پاد، کابل USB، کاتالوگ"
پاد سیستم SMOK مدل NOVO صورتی,"8,000,000ریال","6,300,000ریال",https://www.tehmart.ir/media/uploads/catalog/default/product_129_1619517874_38992.jpg,"پاد سیستم SMOK مدل NOVO ,- بهترین جایگزین برای سیگار,- پک کامل شامل: X2 پاد، کابل USB، کاتالوگ"
پاد سیستم SMOK مدل NOVO آبی,"8,000,000ریال","6,300,000ریال",https://www.tehmart.ir/media/uploads/catalog/default/product_130_1619518494_39578.jpg,"پاد سیستم SMOK مدل NOVO ,- بهترین جایگزین برای سیگار,- پک کامل شامل: X2 پاد، کابل USB، کاتالوگ"
پاد سیستم HATMAN مدل icub2,"5,000,000ریال","3,890,000ریال",https://www.tehmart.ir/media/uploads/catalog/default/product_80_1618828355_22104.jpeg,"پاد سیستم HATMAN مدل icub2,- کارتریج خور,- بهترین جایگزین برای سیگار,- پک کامل شامل: کاتریج، باتری، اتمایزر، کابل USB، کاتالوگ"
فندک بنزینی طرح عقاب کد 05,"800,000ریال","690,000ریال",https://www.tehmart.ir/media/uploads/catalog/default/product_38_1618310320_85257.jpeg,"این روزها فندک های بنزینی تبدیل به یک اکسسوری لوکس و کلکسیونی شدن! به حدی که حتی افراد غیر سیگاری هم تمایل به خرید آن ها دارند.,با این فندک در وزیدن باد نیازی به ایستادن در کنج ندارید؛ با توجه به مکانیسم احتراق سنگی یا چخماقی، با استفاده از یک فتیله‌نسوز و یک سنگ چخماق ایجاد شعله می‌کند که قابل تعویض هم هستن اینطوری سال های سال میتونید ازشون استفاده کنید."
فندک المنتی طرح فراری,"3,200,000ریال","1,990,000ریال",https://www.tehmart.ir/media/uploads/catalog/default/product_135_1619600743_49488.jpeg,"این روزها فندک های المنتی تبدیل به یک اکسسوری لوکس و کلکسیونی شدن! به حدی که حتی افراد غیر سیگاری هم تمایل به خرید آن ها دارند.,با این فندک در وزیدن باد نیازی به ایستادن در کنج ندارید؛ با توجه به مکانیسم احتراق الکترونیکی، با استفاده از المنت و یک باتری ایجاد حرارت می‌کند که قابل شارژ هم میباشد اینطوری سال های سال میتونید ازشون استفاده کنید."
فندک بنزینی طرح عقاب کد 06,"800,000ریال","690,000ریال",https://www.tehmart.ir/media/uploads/catalog/default/product_39_1618311091_76799.jpeg,"این روزها فندک های بنزینی تبدیل به یک اکسسوری لوکس و کلکسیونی شدن! به حدی که حتی افراد غیر سیگاری هم تمایل به خرید آن ها دارند.,با این فندک در وزیدن باد نیازی به ایستادن در کنج ندارید؛ با توجه به مکانیسم احتراق سنگی یا چخماقی، با استفاده از یک فتیله‌نسوز و یک سنگ چخماق ایجاد شعله می‌کند که قابل تعویض هم هستن اینطوری سال های سال میتونید ازشون استفاده کنید."
فندک المنتی طرح لویی ویتان,"3,200,000ریال","1,990,000ریال",https://www.tehmart.ir/media/uploads/catalog/default/product_133_1619599733_23352.jpeg,"این روزها فندک های المنتی تبدیل به یک اکسسوری لوکس و کلکسیونی شدن! به حدی که حتی افراد غیر سیگاری هم تمایل به خرید آن ها دارند.,با این فندک در وزیدن باد نیازی به ایستادن در کنج ندارید؛ با توجه به مکانیسم احتراق الکترونیکی، با استفاده از المنت و یک باتری ایجاد حرارت می‌کند که قابل شارژ هم میباشد اینطوری سال های سال میتونید ازشون استفاده کنید."
فندک بنزینی طرح عقاب کد 04,"800,000ریال","690,000ریال",https://www.tehmart.ir/media/uploads/catalog/default/product_37_1618233832_66206.jpg,"فیتیله ی نسوز,
سوخت بنزین مخصوص,
قابلیت خاموش نشدن در باد,
دارای سنگ چخماق قابل تعویض به جهت روشن شدن فیتیله"
فندک المنتی طرح شنل,"3,200,000ریال","1,990,000ریال",https://www.tehmart.ir/media/uploads/catalog/default/product_137_1619613827_83200.jpeg,"این روزها فندک های المنتی تبدیل به یک اکسسوری لوکس و کلکسیونی شدن! به حدی که حتی افراد غیر سیگاری هم تمایل به خرید آن ها دارند.,با این فندک در وزیدن باد نیازی به ایستادن در کنج ندارید؛ با توجه به مکانیسم احتراق الکترونیکی، با استفاده از المنت و یک باتری ایجاد حرارت می‌کند که قابل شارژ هم میباشد اینطوری سال های سال میتونید ازشون استفاده کنید."
فندک بنزینی طرح عقاب کد 02,"800,000ریال","690,000ریال",https://www.tehmart.ir/media/uploads/catalog/default/product_35_1618233119_45492.jpg,"فیتیله ی نسوز,
سوخت بنزین مخصوص,
قابلیت خاموش نشدن در باد,
دارای سنگ چخماق قابل تعویض به جهت روشن شدن فیتیله"
فندک المنتی طرح رولز رویز,"3,200,000ریال","1,990,000ریال",https://www.tehmart.ir/media/uploads/catalog/default/product_138_1619614314_46942.jpeg,"این روزها فندک های المنتی تبدیل به یک اکسسوری لوکس و کلکسیونی شدن! به حدی که حتی افراد غیر سیگاری هم تمایل به خرید آن ها دارند.,با این فندک در وزیدن باد نیازی به ایستادن در کنج ندارید؛ با توجه به مکانیسم احتراق الکترونیکی، با استفاده از المنت و یک باتری ایجاد حرارت می‌کند که قابل شارژ هم میباشد اینطوری سال های سال میتونید ازشون استفاده کنید."
فندک المنتی طرح بی ام و,"3,200,000ریال","1,990,000ریال",https://www.tehmart.ir/media/uploads/catalog/default/product_136_1619601116_56087.jpeg,"این روزها فندک های المنتی تبدیل به یک اکسسوری لوکس و کلکسیونی شدن! به حدی که حتی افراد غیر سیگاری هم تمایل به خرید آن ها دارند.,با این فندک در وزیدن باد نیازی به ایستادن در کنج ندارید؛ با توجه به مکانیسم احتراق الکترونیکی، با استفاده از المنت و یک باتری ایجاد حرارت می‌کند که قابل شارژ هم میباشد اینطوری سال های سال میتونید ازشون استفاده کنید."
فندک المنتی طرح آئودی,"3,200,000ریال","1,990,000ریال",https://www.tehmart.ir/media/uploads/catalog/default/product_134_1619600282_81034.jpeg,"این روزها فندک های المنتی تبدیل به یک اکسسوری لوکس و کلکسیونی شدن! به حدی که حتی افراد غیر سیگاری هم تمایل به خرید آن ها دارند.,با این فندک در وزیدن باد نیازی به ایستادن در کنج ندارید؛ با توجه به مکانیسم احتراق الکترونیکی، با استفاده از المنت و یک باتری ایجاد حرارت می‌کند که قابل شارژ هم میباشد اینطوری سال های سال میتونید ازشون استفاده کنید."
ایجویس  Naked VERY berry,"2,100,000ریال","1,390,000ریال",https://www.tehmart.ir/media/uploads/catalog/default/product_22_1618038585_34223.jpg,"شرکت نیکد از سری شرکت های معروف تولید کننده جویس با بهترین طعم های با کیفیت می باشد.,از سری جویس های ترکیبی خوش طعم و خاص ترش و شیرین با طعم بلوبری، پرتقال و شاتوت !,بدون آسیب رساندن به کویل و حاوی گلیسیرین طبیعی."
ایجویس Naked Azul Berries,"2,100,000ریال","1,390,000ریال",https://www.tehmart.ir/media/uploads/catalog/default/product_30_1618131790_18461.jpg,"شرکت نیکد از سری شرکت های معروف تولید کننده جویس با بهترین طعم های با کیفیت می باشد.,از سری جویس های ترکیبی خوش طعم و خاص یخی با طعم بلوبری و تمشک !,بدون آسیب رساندن به کویل و حاوی گلیسیرین طبیعی."
فندک بنزینی طرح عقاب کد 01,"800,000ریال","690,000ریال",https://www.tehmart.ir/media/uploads/catalog/default/product_34_1618407593_33899.jpg,"فیتیله ی نسوز,
سوخت بنزین مخصوص,
قابلیت خاموش نشدن در باد,
دارای سنگ چخماق قابل تعویض به جهت روشن شدن فیتیله"
فندک بنزینی طرح عقاب کد 03,"800,000ریال","690,000ریال",https://www.tehmart.ir/media/uploads/catalog/default/product_36_1618233437_48946.jpg,"فیتیله ی نسوز,
سوخت بنزین مخصوص,
قابلیت خاموش نشدن در باد,
دارای سنگ چخماق قابل تعویض به جهت روشن شدن فیتیله"
ایجویس  Naked VERY cool,"2,100,000ریال","1,390,000ریال",https://www.tehmart.ir/media/uploads/catalog/default/product_16_1617709795_28401.jpg,"شرکت نیکد از سری شرکت های معروف تولید کننده جویس با بهترین طعم های با کیفیت می باشد.,از سری جویس های ترکیبی خوش طعم و خاص بلوبری تازه, بلک بری و سپری با خاصیت خنک کنندگی و یخی!,بدون آسیب رساندن به کویل و حاوی گلیسیرین طبیعی."
ایجویس لیمو LOUFOC Lemon,"3,200,000ریال","2,600,000ریال",https://www.tehmart.ir/media/uploads/catalog/default/product_86_1619087842_44230.jpg,"- از سری جویس های پرطرفدار!,- لیموترش تازه و یخ,- خوش طعم و خنک کننده,- بدون آسیب رساندن به کویل و حاوی گلیسیرین طبیعی."
ایجویس هندوانه LOUFOC Watermelon,"3,200,000ریال","2,600,000ریال",https://www.tehmart.ir/media/uploads/catalog/default/product_68_1618738401_13048.jpg,"- از سری جویس های پرطرفدار!,- ترکیبی خوش طعم و خاص از هندوانه شیرین و تازه,- بسیار با کیفیت ,- بدون آسیب رساندن به کویل و حاوی گلیسیرین طبیعی."
ایجویس ماست LOUFOC Yogurt,"3,200,000ریال","2,600,000ریال",https://www.tehmart.ir/media/uploads/catalog/default/product_88_1619087795_97208.jpg,"- ایجویس LOUFOC Yogurt,-  اسانس ماست خامه ای تهیه شده از شیر تازه,- دارای ترکیبات خاص که موجب نرمی جویس شده و حس فرِش بودن به مصرف کننده میده و ازش خسته نمیشید!,- بدون آسیب رساندن به کویل و حاوی گلیسیرین طبیعی."
ایجویس  Naked YUMMY GUM,"2,100,000ریال","1,390,000ریال",https://www.tehmart.ir/media/uploads/catalog/default/product_15_1617705285_12978.jpg,"شرکت نیکد از سری شرکت های معروف تولید کننده جویس با بهترین طعم های با کیفیت می باشد.,از سری جویس های ترکیبی خوش طعم و خاص آدامس میوه ای و توت فرنگی تازه!,بدون آسیب رساندن به کویل و حاوی گلیسیرین طبیعی."
ایجویس  Naked SOUR SWEET,"2,100,000ریال","1,390,000ریال",https://www.tehmart.ir/media/uploads/catalog/default/product_18_1617782057_68884.jpg,"شرکت نیکد از سری شرکت های معروف تولید کننده جویس با بهترین طعم های با کیفیت می باشد.,از سری جویس های ترکیبی خوش طعم و خاص لیمو، پاستیل شکری و لیموترش!,بدون آسیب رساندن به کویل و حاوی گلیسیرین طبیعی."
ایجویس منتول LOUFOC Menthol,"3,200,000ریال","2,600,000ریال",https://www.tehmart.ir/media/uploads/catalog/default/product_92_1619420959_60255.jpg,"- ایجویس LOUFOC Menthol,-  اسانس نعنایی(ترکیب تند و شیرین),- دارای ترکیبات خاص که موجب نرمی جویس شده و حس فرِش بودن به مصرف کننده میده و ازش خسته نمیشید!,- دارای خاصیت خنک کنندگی,- بدون آسیب رساندن به کویل و حاوی گلیسیرین طبیعی."
ایجویس میوه لیچی LOUFOC Lychee,"3,200,000ریال","2,600,000ریال",https://www.tehmart.ir/media/uploads/catalog/default/product_64_1619088079_79268.jpg,"جویس LOUFOC,- اسانس میوه استوایی شیرین و آبدار لیچی,- جزو جویس های با کیفیت ,- بدون آسیب رساندن به کویل و حاوی گلیسیرین طبیعی"
